{
  "action":"Inquire",
  "start_node": 0,
  "nodes": [
    {
      "id": 0,
      "text": "So what do you do for a living?",
      "choices": [
        {
          "action": "Educate",
          "nodes": {
            "like": 1,
            "dislike": 2
          }
        },
        {
          "action": "Prank",
          "nodes": {
            "like": 3,
            "dislike": 4
          }
        },
        {
          "action": "Relate",
          "nodes": {
            "like": 5,
            "dislike": 6
          }
        }
      ]
    },
    {
      "id": 1,
      "text": "I've always admired people who teach others.",
      "choices": [
        {
          "action": "Interesting Fact",
          "nodes": {
            "like": -1,
            "dislike": -1
          }
        },
        {
          "action": "Captivate",
          "nodes": {
            "like": -1,
            "dislike": -1
          }
        }
      ]
    },
    {
      "id": 2,
      "text": "Is that really what you wanted to do when you were little?",
      "choices": [
        {
          "action": "Be Silly",
          "nodes": {
            "like": -1,
            "dislike": -1
          }
        },
        {
          "action": "Judge",
          "nodes": {
            "like": -1,
            "dislike": -1
          }
        }
      ]
    },
  ]
}