info face="Times Square" size=32 bold=0 italic=0 charset="" unicode=1 stretchH=100 smooth=1 aa=1 padding=0,0,0,0 spacing=1,1 outline=0
common lineHeight=32 base=27 scaleW=256 scaleH=256 pages=1 packed=0 alphaChnl=1 redChnl=0 greenChnl=0 blueChnl=0
page id=0 file="ts_0.png"
chars count=405
char id=32   x=32    y=101   width=3     height=1     xoffset=-1    yoffset=31    xadvance=13    page=0  chnl=15
char id=33   x=251   y=153   width=4     height=19    xoffset=1     yoffset=8     xadvance=5     page=0  chnl=15
char id=34   x=42    y=244   width=10    height=6     xoffset=3     yoffset=8     xadvance=16    page=0  chnl=15
char id=35   x=29    y=203   width=15    height=14    xoffset=1     yoffset=8     xadvance=16    page=0  chnl=15
char id=36   x=64    y=0     width=15    height=25    xoffset=1     yoffset=5     xadvance=16    page=0  chnl=15
char id=37   x=228   y=93    width=15    height=19    xoffset=1     yoffset=8     xadvance=16    page=0  chnl=15
char id=38   x=0     y=123   width=15    height=19    xoffset=1     yoffset=8     xadvance=16    page=0  chnl=15
char id=39   x=99    y=236   width=4     height=6     xoffset=6     yoffset=5     xadvance=16    page=0  chnl=15
char id=40   x=240   y=153   width=10    height=19    xoffset=3     yoffset=8     xadvance=16    page=0  chnl=15
char id=41   x=229   y=155   width=10    height=19    xoffset=3     yoffset=8     xadvance=16    page=0  chnl=15
char id=42   x=45    y=203   width=15    height=14    xoffset=1     yoffset=8     xadvance=16    page=0  chnl=15
char id=43   x=176   y=209   width=15    height=13    xoffset=1     yoffset=11    xadvance=16    page=0  chnl=15
char id=44   x=205   y=220   width=7     height=8     xoffset=4     yoffset=22    xadvance=16    page=0  chnl=15
char id=45   x=89    y=245   width=10    height=2     xoffset=0     yoffset=14    xadvance=11    page=0  chnl=15
char id=46   x=53    y=249   width=4     height=3     xoffset=1     yoffset=24    xadvance=5     page=0  chnl=15
char id=47   x=106   y=74    width=12    height=22    xoffset=1     yoffset=8     xadvance=16    page=0  chnl=15
char id=48   x=32    y=123   width=15    height=19    xoffset=1     yoffset=8     xadvance=16    page=0  chnl=15
char id=49   x=218   y=155   width=10    height=19    xoffset=6     yoffset=8     xadvance=16    page=0  chnl=15
char id=50   x=48    y=121   width=15    height=19    xoffset=1     yoffset=8     xadvance=16    page=0  chnl=15
char id=51   x=148   y=96    width=15    height=19    xoffset=1     yoffset=8     xadvance=16    page=0  chnl=15
char id=52   x=64    y=119   width=15    height=19    xoffset=1     yoffset=8     xadvance=16    page=0  chnl=15
char id=53   x=80    y=117   width=15    height=19    xoffset=1     yoffset=8     xadvance=16    page=0  chnl=15
char id=54   x=160   y=116   width=15    height=19    xoffset=1     yoffset=8     xadvance=16    page=0  chnl=15
char id=55   x=176   y=116   width=15    height=19    xoffset=1     yoffset=8     xadvance=16    page=0  chnl=15
char id=56   x=192   y=115   width=15    height=19    xoffset=1     yoffset=8     xadvance=16    page=0  chnl=15
char id=57   x=208   y=115   width=15    height=19    xoffset=1     yoffset=8     xadvance=16    page=0  chnl=15
char id=58   x=45    y=232   width=4     height=11    xoffset=6     yoffset=16    xadvance=16    page=0  chnl=15
char id=59   x=244   y=173   width=7     height=16    xoffset=4     yoffset=16    xadvance=16    page=0  chnl=15
char id=60   x=214   y=206   width=10    height=13    xoffset=3     yoffset=11    xadvance=16    page=0  chnl=15
char id=61   x=104   y=226   width=15    height=8     xoffset=1     yoffset=16    xadvance=16    page=0  chnl=15
char id=62   x=192   y=207   width=10    height=13    xoffset=3     yoffset=11    xadvance=16    page=0  chnl=15
char id=63   x=240   y=113   width=15    height=19    xoffset=1     yoffset=8     xadvance=16    page=0  chnl=15
char id=64   x=0     y=143   width=15    height=19    xoffset=1     yoffset=8     xadvance=16    page=0  chnl=15
char id=65   x=16    y=143   width=15    height=19    xoffset=1     yoffset=8     xadvance=16    page=0  chnl=15
char id=66   x=32    y=143   width=15    height=19    xoffset=1     yoffset=8     xadvance=16    page=0  chnl=15
char id=67   x=48    y=141   width=15    height=19    xoffset=1     yoffset=8     xadvance=16    page=0  chnl=15
char id=68   x=64    y=139   width=15    height=19    xoffset=1     yoffset=8     xadvance=16    page=0  chnl=15
char id=69   x=96    y=137   width=15    height=19    xoffset=1     yoffset=8     xadvance=16    page=0  chnl=15
char id=70   x=112   y=137   width=15    height=19    xoffset=1     yoffset=8     xadvance=16    page=0  chnl=15
char id=71   x=128   y=137   width=15    height=19    xoffset=1     yoffset=8     xadvance=16    page=0  chnl=15
char id=72   x=144   y=136   width=15    height=19    xoffset=1     yoffset=8     xadvance=16    page=0  chnl=15
char id=73   x=20    y=183   width=9     height=19    xoffset=1     yoffset=8     xadvance=11    page=0  chnl=15
char id=74   x=160   y=136   width=15    height=19    xoffset=1     yoffset=8     xadvance=16    page=0  chnl=15
char id=75   x=176   y=136   width=15    height=19    xoffset=1     yoffset=8     xadvance=16    page=0  chnl=15
char id=76   x=192   y=135   width=15    height=19    xoffset=1     yoffset=8     xadvance=16    page=0  chnl=15
char id=77   x=208   y=135   width=15    height=19    xoffset=1     yoffset=8     xadvance=16    page=0  chnl=15
char id=78   x=224   y=135   width=15    height=19    xoffset=1     yoffset=8     xadvance=16    page=0  chnl=15
char id=79   x=240   y=133   width=15    height=19    xoffset=1     yoffset=8     xadvance=16    page=0  chnl=15
char id=80   x=16    y=163   width=15    height=19    xoffset=1     yoffset=8     xadvance=16    page=0  chnl=15
char id=81   x=206   y=50    width=15    height=22    xoffset=1     yoffset=8     xadvance=16    page=0  chnl=15
char id=82   x=196   y=95    width=15    height=19    xoffset=1     yoffset=8     xadvance=16    page=0  chnl=15
char id=83   x=48    y=161   width=15    height=19    xoffset=1     yoffset=8     xadvance=16    page=0  chnl=15
char id=84   x=64    y=159   width=15    height=19    xoffset=1     yoffset=8     xadvance=16    page=0  chnl=15
char id=85   x=80    y=157   width=15    height=19    xoffset=1     yoffset=8     xadvance=16    page=0  chnl=15
char id=86   x=96    y=157   width=15    height=19    xoffset=1     yoffset=8     xadvance=16    page=0  chnl=15
char id=87   x=112   y=157   width=15    height=19    xoffset=1     yoffset=8     xadvance=16    page=0  chnl=15
char id=88   x=36    y=101   width=15    height=19    xoffset=1     yoffset=8     xadvance=16    page=0  chnl=15
char id=89   x=80    y=137   width=15    height=19    xoffset=1     yoffset=8     xadvance=16    page=0  chnl=15
char id=90   x=52    y=99    width=15    height=19    xoffset=1     yoffset=8     xadvance=16    page=0  chnl=15
char id=91   x=38    y=183   width=7     height=19    xoffset=6     yoffset=8     xadvance=16    page=0  chnl=15
char id=92   x=80    y=74    width=12    height=22    xoffset=1     yoffset=8     xadvance=16    page=0  chnl=15
char id=93   x=30    y=183   width=7     height=19    xoffset=3     yoffset=8     xadvance=16    page=0  chnl=15
char id=94   x=64    y=239   width=10    height=6     xoffset=3     yoffset=8     xadvance=16    page=0  chnl=15
char id=95   x=200   y=230   width=15    height=3     xoffset=0     yoffset=24    xadvance=16    page=0  chnl=15
char id=96   x=91    y=236   width=7     height=6     xoffset=5     yoffset=5     xadvance=16    page=0  chnl=15
char id=97   x=128   y=210   width=15    height=13    xoffset=1     yoffset=14    xadvance=16    page=0  chnl=15
char id=98   x=68    y=97    width=15    height=19    xoffset=1     yoffset=8     xadvance=16    page=0  chnl=15
char id=99   x=152   y=196   width=15    height=13    xoffset=1     yoffset=14    xadvance=16    page=0  chnl=15
char id=100  x=84    y=97    width=15    height=19    xoffset=1     yoffset=8     xadvance=16    page=0  chnl=15
char id=101  x=168   y=195   width=15    height=13    xoffset=1     yoffset=14    xadvance=16    page=0  chnl=15
char id=102  x=144   y=156   width=12    height=19    xoffset=1     yoffset=8     xadvance=13    page=0  chnl=15
char id=103  x=57    y=181   width=15    height=18    xoffset=1     yoffset=14    xadvance=16    page=0  chnl=15
char id=104  x=116   y=97    width=15    height=19    xoffset=1     yoffset=8     xadvance=16    page=0  chnl=15
char id=105  x=10    y=183   width=9     height=19    xoffset=1     yoffset=8     xadvance=11    page=0  chnl=15
char id=106  x=0     y=55    width=9     height=24    xoffset=1     yoffset=8     xadvance=11    page=0  chnl=15
char id=107  x=132   y=96    width=15    height=19    xoffset=1     yoffset=8     xadvance=16    page=0  chnl=15
char id=108  x=0     y=183   width=9     height=19    xoffset=1     yoffset=8     xadvance=11    page=0  chnl=15
char id=109  x=184   y=193   width=15    height=13    xoffset=1     yoffset=14    xadvance=16    page=0  chnl=15
char id=110  x=200   y=192   width=15    height=13    xoffset=1     yoffset=14    xadvance=16    page=0  chnl=15
char id=111  x=216   y=192   width=15    height=13    xoffset=1     yoffset=14    xadvance=16    page=0  chnl=15
char id=112  x=73    y=179   width=15    height=18    xoffset=1     yoffset=14    xadvance=16    page=0  chnl=15
char id=113  x=89    y=177   width=15    height=18    xoffset=1     yoffset=14    xadvance=16    page=0  chnl=15
char id=114  x=232   y=192   width=15    height=13    xoffset=1     yoffset=14    xadvance=16    page=0  chnl=15
char id=115  x=0     y=220   width=15    height=13    xoffset=1     yoffset=14    xadvance=16    page=0  chnl=15
char id=116  x=183   y=156   width=12    height=19    xoffset=1     yoffset=8     xadvance=13    page=0  chnl=15
char id=117  x=16    y=220   width=15    height=13    xoffset=1     yoffset=14    xadvance=16    page=0  chnl=15
char id=118  x=32    y=218   width=15    height=13    xoffset=1     yoffset=14    xadvance=16    page=0  chnl=15
char id=119  x=48    y=218   width=15    height=13    xoffset=1     yoffset=14    xadvance=16    page=0  chnl=15
char id=120  x=64    y=215   width=15    height=13    xoffset=1     yoffset=14    xadvance=16    page=0  chnl=15
char id=121  x=121   y=177   width=15    height=18    xoffset=1     yoffset=14    xadvance=16    page=0  chnl=15
char id=122  x=80    y=213   width=15    height=13    xoffset=1     yoffset=14    xadvance=16    page=0  chnl=15
char id=123  x=91    y=0     width=10    height=25    xoffset=3     yoffset=5     xadvance=16    page=0  chnl=15
char id=124  x=173   y=73    width=4     height=22    xoffset=6     yoffset=8     xadvance=16    page=0  chnl=15
char id=125  x=80    y=0     width=10    height=25    xoffset=3     yoffset=5     xadvance=16    page=0  chnl=15
char id=126  x=0     y=246   width=15    height=6     xoffset=0     yoffset=8     xadvance=16    page=0  chnl=15
char id=160  x=56    y=51    width=3     height=1     xoffset=-1    yoffset=31    xadvance=16    page=0  chnl=15
char id=161  x=46    y=183   width=5     height=19    xoffset=3     yoffset=8     xadvance=11    page=0  chnl=15
char id=162  x=180   y=95    width=15    height=19    xoffset=1     yoffset=11    xadvance=16    page=0  chnl=15
char id=163  x=46    y=53    width=15    height=22    xoffset=1     yoffset=5     xadvance=16    page=0  chnl=15
char id=164  x=241   y=206   width=12    height=11    xoffset=3     yoffset=8     xadvance=16    page=0  chnl=15
char id=165  x=32    y=163   width=15    height=19    xoffset=1     yoffset=8     xadvance=16    page=0  chnl=15
char id=166  x=52    y=181   width=4     height=19    xoffset=6     yoffset=8     xadvance=16    page=0  chnl=15
char id=167  x=32    y=0     width=15    height=27    xoffset=1     yoffset=3     xadvance=16    page=0  chnl=15
char id=168  x=232   y=227   width=10    height=3     xoffset=3     yoffset=5     xadvance=16    page=0  chnl=15
char id=169  x=199   y=73    width=20    height=21    xoffset=1     yoffset=3     xadvance=21    page=0  chnl=15
char id=170  x=13    y=203   width=12    height=16    xoffset=1     yoffset=8     xadvance=16    page=0  chnl=15
char id=171  x=225   y=206   width=15    height=11    xoffset=0     yoffset=16    xadvance=16    page=0  chnl=15
char id=172  x=88    y=227   width=15    height=8     xoffset=0     yoffset=16    xadvance=16    page=0  chnl=15
char id=173  x=111   y=242   width=10    height=2     xoffset=3     yoffset=14    xadvance=16    page=0  chnl=15
char id=174  x=178   y=73    width=20    height=21    xoffset=1     yoffset=3     xadvance=21    page=0  chnl=15
char id=175  x=42    y=251   width=10    height=3     xoffset=3     yoffset=8     xadvance=16    page=0  chnl=15
char id=176  x=32    y=232   width=12    height=11    xoffset=3     yoffset=3     xadvance=16    page=0  chnl=15
char id=177  x=180   y=176   width=15    height=16    xoffset=1     yoffset=11    xadvance=16    page=0  chnl=15
char id=180  x=75    y=238   width=7     height=6     xoffset=5     yoffset=5     xadvance=16    page=0  chnl=15
char id=181  x=105   y=177   width=15    height=18    xoffset=1     yoffset=14    xadvance=16    page=0  chnl=15
char id=182  x=96    y=117   width=15    height=19    xoffset=1     yoffset=8     xadvance=16    page=0  chnl=15
char id=183  x=155   y=233   width=7     height=5     xoffset=0     yoffset=14    xadvance=8     page=0  chnl=15
char id=184  x=175   y=224   width=10    height=8     xoffset=3     yoffset=24    xadvance=16    page=0  chnl=15
char id=186  x=0     y=203   width=12    height=16    xoffset=1     yoffset=8     xadvance=16    page=0  chnl=15
char id=187  x=16    y=234   width=15    height=11    xoffset=0     yoffset=16    xadvance=16    page=0  chnl=15
char id=191  x=144   y=116   width=15    height=19    xoffset=1     yoffset=8     xadvance=16    page=0  chnl=15
char id=192  x=240   y=25    width=15    height=24    xoffset=1     yoffset=3     xadvance=16    page=0  chnl=15
char id=193  x=182   y=0     width=15    height=24    xoffset=1     yoffset=3     xadvance=16    page=0  chnl=15
char id=194  x=224   y=25    width=15    height=24    xoffset=1     yoffset=3     xadvance=16    page=0  chnl=15
char id=195  x=208   y=25    width=15    height=24    xoffset=1     yoffset=3     xadvance=16    page=0  chnl=15
char id=196  x=192   y=25    width=15    height=24    xoffset=1     yoffset=3     xadvance=16    page=0  chnl=15
char id=197  x=176   y=25    width=15    height=24    xoffset=1     yoffset=3     xadvance=16    page=0  chnl=15
char id=198  x=0     y=103   width=17    height=19    xoffset=1     yoffset=8     xadvance=19    page=0  chnl=15
char id=199  x=144   y=25    width=15    height=24    xoffset=1     yoffset=8     xadvance=16    page=0  chnl=15
char id=200  x=112   y=25    width=15    height=24    xoffset=1     yoffset=3     xadvance=16    page=0  chnl=15
char id=201  x=96    y=26    width=15    height=24    xoffset=1     yoffset=3     xadvance=16    page=0  chnl=15
char id=202  x=80    y=26    width=15    height=24    xoffset=1     yoffset=3     xadvance=16    page=0  chnl=15
char id=203  x=94    y=51    width=15    height=22    xoffset=1     yoffset=5     xadvance=16    page=0  chnl=15
char id=204  x=10    y=55    width=9     height=24    xoffset=1     yoffset=3     xadvance=11    page=0  chnl=15
char id=205  x=20    y=55    width=9     height=24    xoffset=1     yoffset=3     xadvance=11    page=0  chnl=15
char id=206  x=246   y=0     width=9     height=24    xoffset=1     yoffset=3     xadvance=11    page=0  chnl=15
char id=207  x=163   y=73    width=9     height=22    xoffset=1     yoffset=5     xadvance=11    page=0  chnl=15
char id=209  x=48    y=26    width=15    height=24    xoffset=1     yoffset=3     xadvance=16    page=0  chnl=15
char id=210  x=32    y=28    width=15    height=24    xoffset=1     yoffset=3     xadvance=16    page=0  chnl=15
char id=211  x=16    y=30    width=15    height=24    xoffset=1     yoffset=3     xadvance=16    page=0  chnl=15
char id=212  x=0     y=30    width=15    height=24    xoffset=1     yoffset=3     xadvance=16    page=0  chnl=15
char id=213  x=64    y=26    width=15    height=24    xoffset=1     yoffset=3     xadvance=16    page=0  chnl=15
char id=214  x=230   y=0     width=15    height=24    xoffset=1     yoffset=3     xadvance=16    page=0  chnl=15
char id=216  x=0     y=163   width=15    height=19    xoffset=1     yoffset=8     xadvance=16    page=0  chnl=15
char id=217  x=214   y=0     width=15    height=24    xoffset=1     yoffset=3     xadvance=16    page=0  chnl=15
char id=218  x=198   y=0     width=15    height=24    xoffset=1     yoffset=3     xadvance=16    page=0  chnl=15
char id=219  x=150   y=0     width=15    height=24    xoffset=1     yoffset=3     xadvance=16    page=0  chnl=15
char id=220  x=134   y=0     width=15    height=24    xoffset=1     yoffset=3     xadvance=16    page=0  chnl=15
char id=223  x=48    y=0     width=15    height=25    xoffset=1     yoffset=5     xadvance=16    page=0  chnl=15
char id=224  x=16    y=80    width=15    height=22    xoffset=1     yoffset=5     xadvance=16    page=0  chnl=15
char id=225  x=32    y=78    width=15    height=22    xoffset=1     yoffset=5     xadvance=16    page=0  chnl=15
char id=226  x=0     y=80    width=15    height=22    xoffset=1     yoffset=5     xadvance=16    page=0  chnl=15
char id=227  x=30    y=55    width=15    height=22    xoffset=1     yoffset=5     xadvance=16    page=0  chnl=15
char id=228  x=212   y=95    width=15    height=19    xoffset=1     yoffset=8     xadvance=16    page=0  chnl=15
char id=229  x=166   y=0     width=15    height=24    xoffset=1     yoffset=3     xadvance=16    page=0  chnl=15
char id=230  x=136   y=196   width=15    height=13    xoffset=1     yoffset=14    xadvance=16    page=0  chnl=15
char id=231  x=153   y=176   width=15    height=18    xoffset=1     yoffset=14    xadvance=16    page=0  chnl=15
char id=232  x=142   y=50    width=15    height=22    xoffset=1     yoffset=5     xadvance=16    page=0  chnl=15
char id=233  x=78    y=51    width=15    height=22    xoffset=1     yoffset=5     xadvance=16    page=0  chnl=15
char id=234  x=62    y=51    width=15    height=22    xoffset=1     yoffset=5     xadvance=16    page=0  chnl=15
char id=235  x=224   y=115   width=15    height=19    xoffset=1     yoffset=8     xadvance=16    page=0  chnl=15
char id=236  x=152   y=73    width=10    height=22    xoffset=3     yoffset=5     xadvance=16    page=0  chnl=15
char id=237  x=141   y=73    width=10    height=22    xoffset=3     yoffset=5     xadvance=16    page=0  chnl=15
char id=238  x=130   y=73    width=10    height=22    xoffset=3     yoffset=5     xadvance=16    page=0  chnl=15
char id=239  x=207   y=155   width=10    height=19    xoffset=3     yoffset=8     xadvance=16    page=0  chnl=15
char id=241  x=222   y=50    width=15    height=22    xoffset=1     yoffset=5     xadvance=16    page=0  chnl=15
char id=242  x=174   y=50    width=15    height=22    xoffset=1     yoffset=5     xadvance=16    page=0  chnl=15
char id=243  x=158   y=50    width=15    height=22    xoffset=1     yoffset=5     xadvance=16    page=0  chnl=15
char id=244  x=64    y=74    width=15    height=22    xoffset=1     yoffset=5     xadvance=16    page=0  chnl=15
char id=245  x=238   y=50    width=15    height=22    xoffset=1     yoffset=5     xadvance=16    page=0  chnl=15
char id=246  x=100   y=97    width=15    height=19    xoffset=1     yoffset=8     xadvance=16    page=0  chnl=15
char id=247  x=120   y=196   width=15    height=13    xoffset=0     yoffset=11    xadvance=16    page=0  chnl=15
char id=248  x=104   y=196   width=15    height=13    xoffset=1     yoffset=14    xadvance=16    page=0  chnl=15
char id=249  x=190   y=50    width=15    height=22    xoffset=1     yoffset=5     xadvance=16    page=0  chnl=15
char id=250  x=110   y=51    width=15    height=22    xoffset=1     yoffset=5     xadvance=16    page=0  chnl=15
char id=251  x=126   y=50    width=15    height=22    xoffset=1     yoffset=5     xadvance=16    page=0  chnl=15
char id=252  x=164   y=96    width=15    height=19    xoffset=1     yoffset=8     xadvance=16    page=0  chnl=15
char id=255  x=128   y=25    width=15    height=24    xoffset=1     yoffset=8     xadvance=16    page=0  chnl=15
char id=305  x=203   y=206   width=10    height=13    xoffset=3     yoffset=14    xadvance=16    page=0  chnl=15
char id=338  x=18    y=103   width=17    height=19    xoffset=1     yoffset=8     xadvance=19    page=0  chnl=15
char id=339  x=88    y=198   width=15    height=13    xoffset=1     yoffset=14    xadvance=16    page=0  chnl=15
char id=376  x=102   y=0     width=15    height=24    xoffset=1     yoffset=3     xadvance=16    page=0  chnl=15
char id=381  x=160   y=25    width=15    height=24    xoffset=1     yoffset=3     xadvance=16    page=0  chnl=15
char id=382  x=48    y=76    width=15    height=22    xoffset=1     yoffset=5     xadvance=16    page=0  chnl=15
char id=402  x=0     y=0     width=15    height=29    xoffset=1     yoffset=3     xadvance=16    page=0  chnl=15
char id=710  x=144   y=233   width=10    height=5     xoffset=3     yoffset=3     xadvance=16    page=0  chnl=15
char id=711  x=53    y=242   width=10    height=6     xoffset=3     yoffset=8     xadvance=16    page=0  chnl=15
char id=713  x=243   y=227   width=10    height=3     xoffset=3     yoffset=8     xadvance=16    page=0  chnl=15
char id=728  x=16    y=246   width=12    height=6     xoffset=3     yoffset=8     xadvance=16    page=0  chnl=15
char id=729  x=83    y=238   width=7     height=6     xoffset=5     yoffset=5     xadvance=16    page=0  chnl=15
char id=730  x=50    y=232   width=10    height=9     xoffset=3     yoffset=5     xadvance=16    page=0  chnl=15
char id=731  x=186   y=223   width=10    height=8     xoffset=5     yoffset=24    xadvance=16    page=0  chnl=15
char id=732  x=128   y=233   width=15    height=5     xoffset=0     yoffset=3     xadvance=16    page=0  chnl=15
char id=733  x=29    y=246   width=12    height=6     xoffset=1     yoffset=5     xadvance=13    page=0  chnl=15
char id=916  x=228   y=175   width=15    height=16    xoffset=1     yoffset=11    xadvance=16    page=0  chnl=15
char id=937  x=128   y=117   width=15    height=19    xoffset=1     yoffset=8     xadvance=16    page=0  chnl=15
char id=956  x=137   y=177   width=15    height=18    xoffset=1     yoffset=14    xadvance=16    page=0  chnl=15
char id=960  x=0     y=234   width=15    height=11    xoffset=1     yoffset=16    xadvance=16    page=0  chnl=15
char id=8208 x=122   y=240   width=10    height=2     xoffset=0     yoffset=14    xadvance=11    page=0  chnl=15
char id=8211 x=133   y=239   width=10    height=2     xoffset=3     yoffset=14    xadvance=16    page=0  chnl=15
char id=8212 x=70    y=246   width=18    height=2     xoffset=0     yoffset=14    xadvance=16    page=0  chnl=15
char id=8216 x=237   y=218   width=7     height=8     xoffset=5     yoffset=8     xadvance=16    page=0  chnl=15
char id=8217 x=197   y=221   width=7     height=8     xoffset=4     yoffset=8     xadvance=16    page=0  chnl=15
char id=8218 x=213   y=220   width=7     height=8     xoffset=4     yoffset=22    xadvance=16    page=0  chnl=15
char id=8220 x=136   y=224   width=12    height=8     xoffset=3     yoffset=8     xadvance=16    page=0  chnl=15
char id=8221 x=149   y=224   width=12    height=8     xoffset=1     yoffset=8     xadvance=16    page=0  chnl=15
char id=8222 x=162   y=224   width=12    height=8     xoffset=1     yoffset=22    xadvance=16    page=0  chnl=15
char id=8224 x=77    y=198   width=10    height=14    xoffset=3     yoffset=5     xadvance=16    page=0  chnl=15
char id=8225 x=119   y=74    width=10    height=22    xoffset=3     yoffset=8     xadvance=16    page=0  chnl=15
char id=8226 x=61    y=200   width=15    height=14    xoffset=1     yoffset=8     xadvance=16    page=0  chnl=15
char id=8230 x=216   y=229   width=15    height=3     xoffset=0     yoffset=24    xadvance=16    page=0  chnl=15
char id=8240 x=220   y=73    width=20    height=19    xoffset=1     yoffset=8     xadvance=21    page=0  chnl=15
char id=8249 x=221   y=220   width=7     height=8     xoffset=4     yoffset=11    xadvance=16    page=0  chnl=15
char id=8250 x=229   y=218   width=7     height=8     xoffset=5     yoffset=11    xadvance=16    page=0  chnl=15
char id=8260 x=93    y=74    width=12    height=22    xoffset=1     yoffset=8     xadvance=16    page=0  chnl=15
char id=8482 x=70    y=229   width=17    height=8     xoffset=1     yoffset=8     xadvance=19    page=0  chnl=15
char id=8486 x=16    y=123   width=15    height=19    xoffset=1     yoffset=8     xadvance=16    page=0  chnl=15
char id=8706 x=241   y=73    width=13    height=19    xoffset=3     yoffset=8     xadvance=16    page=0  chnl=15
char id=8710 x=212   y=175   width=15    height=16    xoffset=1     yoffset=11    xadvance=16    page=0  chnl=15
char id=8719 x=112   y=117   width=15    height=19    xoffset=1     yoffset=8     xadvance=16    page=0  chnl=15
char id=8721 x=128   y=157   width=15    height=19    xoffset=1     yoffset=8     xadvance=16    page=0  chnl=15
char id=8722 x=100   y=243   width=10    height=2     xoffset=3     yoffset=14    xadvance=16    page=0  chnl=15
char id=8729 x=163   y=233   width=7     height=5     xoffset=0     yoffset=14    xadvance=8     page=0  chnl=15
char id=8730 x=196   y=175   width=15    height=16    xoffset=0     yoffset=11    xadvance=16    page=0  chnl=15
char id=8734 x=120   y=224   width=15    height=8     xoffset=1     yoffset=14    xadvance=16    page=0  chnl=15
char id=8747 x=16    y=0     width=15    height=29    xoffset=1     yoffset=3     xadvance=16    page=0  chnl=15
char id=8776 x=144   y=210   width=15    height=13    xoffset=1     yoffset=11    xadvance=16    page=0  chnl=15
char id=8800 x=160   y=210   width=15    height=13    xoffset=1     yoffset=14    xadvance=16    page=0  chnl=15
char id=8804 x=196   y=155   width=10    height=19    xoffset=3     yoffset=8     xadvance=16    page=0  chnl=15
char id=8805 x=244   y=93    width=10    height=19    xoffset=3     yoffset=8     xadvance=16    page=0  chnl=15
char id=8946 x=96    y=212   width=15    height=13    xoffset=1     yoffset=11    xadvance=16    page=0  chnl=15
char id=9674 x=112   y=210   width=15    height=13    xoffset=0     yoffset=11    xadvance=16    page=0  chnl=15
char id=61440 x=118   y=0     width=15    height=24    xoffset=1     yoffset=3     xadvance=16    page=0  chnl=15
char id=61441 x=170   y=156   width=12    height=19    xoffset=1     yoffset=8     xadvance=16    page=0  chnl=15
char id=61442 x=157   y=156   width=12    height=19    xoffset=1     yoffset=8     xadvance=16    page=0  chnl=15
char id=68096 x=113   y=235   width=2     height=6     xoffset=0     yoffset=10    xadvance=13    page=0  chnl=15
char id=68097 x=195   y=232   width=2     height=4     xoffset=0     yoffset=21    xadvance=13    page=0  chnl=15
char id=68098 x=184   y=233   width=3     height=4     xoffset=-1    yoffset=18    xadvance=13    page=0  chnl=15
char id=68099 x=30    y=78    width=1     height=1     xoffset=1     yoffset=21    xadvance=13    page=0  chnl=15
char id=68101 x=56    y=201   width=1     height=1     xoffset=1     yoffset=21    xadvance=13    page=0  chnl=15
char id=68102 x=192   y=232   width=2     height=4     xoffset=0     yoffset=21    xadvance=13    page=0  chnl=15
char id=68108 x=188   y=232   width=3     height=4     xoffset=-1    yoffset=20    xadvance=13    page=0  chnl=15
char id=68109 x=253   y=190   width=1     height=10    xoffset=1     yoffset=21    xadvance=13    page=0  chnl=15
char id=68110 x=254   y=201   width=1     height=10    xoffset=1     yoffset=21    xadvance=13    page=0  chnl=15
char id=68111 x=46    y=76    width=1     height=1     xoffset=1     yoffset=21    xadvance=13    page=0  chnl=15
char id=68112 x=147   y=239   width=2     height=2     xoffset=0     yoffset=9     xadvance=13    page=0  chnl=15
char id=68113 x=251   y=218   width=2     height=7     xoffset=0     yoffset=13    xadvance=13    page=0  chnl=15
char id=68114 x=125   y=233   width=2     height=6     xoffset=0     yoffset=9     xadvance=13    page=0  chnl=15
char id=68115 x=122   y=233   width=2     height=6     xoffset=0     yoffset=9     xadvance=13    page=0  chnl=15
char id=68117 x=150   y=239   width=2     height=2     xoffset=0     yoffset=9     xadvance=13    page=0  chnl=15
char id=68118 x=254   y=212   width=1     height=5     xoffset=1     yoffset=15    xadvance=13    page=0  chnl=15
char id=68119 x=171   y=239   width=1     height=2     xoffset=1     yoffset=9     xadvance=13    page=0  chnl=15
char id=68121 x=254   y=50    width=1     height=17    xoffset=1     yoffset=9     xadvance=13    page=0  chnl=15
char id=68122 x=26    y=203   width=2     height=16    xoffset=0     yoffset=10    xadvance=13    page=0  chnl=15
char id=68123 x=61    y=232   width=2     height=9     xoffset=0     yoffset=9     xadvance=13    page=0  chnl=15
char id=68124 x=245   y=218   width=2     height=8     xoffset=0     yoffset=9     xadvance=13    page=0  chnl=15
char id=68125 x=153   y=239   width=2     height=2     xoffset=0     yoffset=9     xadvance=13    page=0  chnl=15
char id=68126 x=44    y=53    width=1     height=1     xoffset=1     yoffset=25    xadvance=13    page=0  chnl=15
char id=68127 x=175   y=233   width=2     height=5     xoffset=0     yoffset=9     xadvance=13    page=0  chnl=15
char id=68128 x=144   y=239   width=2     height=2     xoffset=0     yoffset=16    xadvance=13    page=0  chnl=15
char id=68129 x=198   y=230   width=1     height=4     xoffset=1     yoffset=10    xadvance=13    page=0  chnl=15
char id=68130 x=173   y=239   width=1     height=2     xoffset=1     yoffset=10    xadvance=13    page=0  chnl=15
char id=68131 x=254   y=218   width=1     height=3     xoffset=1     yoffset=11    xadvance=13    page=0  chnl=15
char id=68132 x=178   y=176   width=1     height=17    xoffset=1     yoffset=9     xadvance=13    page=0  chnl=15
char id=68133 x=156   y=239   width=2     height=2     xoffset=0     yoffset=14    xadvance=13    page=0  chnl=15
char id=68134 x=104   y=235   width=2     height=6     xoffset=0     yoffset=10    xadvance=13    page=0  chnl=15
char id=68135 x=61    y=215   width=2     height=2     xoffset=0     yoffset=9     xadvance=13    page=0  chnl=15
char id=68136 x=119   y=235   width=2     height=6     xoffset=0     yoffset=9     xadvance=13    page=0  chnl=15
char id=68137 x=167   y=239   width=1     height=2     xoffset=1     yoffset=20    xadvance=13    page=0  chnl=15
char id=68138 x=178   y=233   width=2     height=5     xoffset=0     yoffset=9     xadvance=13    page=0  chnl=15
char id=68139 x=61    y=249   width=2     height=3     xoffset=0     yoffset=14    xadvance=13    page=0  chnl=15
char id=68140 x=162   y=239   width=2     height=2     xoffset=0     yoffset=9     xadvance=13    page=0  chnl=15
char id=68141 x=248   y=190   width=1     height=13    xoffset=1     yoffset=9     xadvance=13    page=0  chnl=15
char id=68142 x=110   y=235   width=2     height=6     xoffset=0     yoffset=11    xadvance=13    page=0  chnl=15
char id=68143 x=172   y=176   width=2     height=18    xoffset=0     yoffset=8     xadvance=13    page=0  chnl=15
char id=68144 x=64    y=246   width=2     height=3     xoffset=0     yoffset=14    xadvance=13    page=0  chnl=15
char id=68145 x=67    y=246   width=2     height=3     xoffset=0     yoffset=10    xadvance=13    page=0  chnl=15
char id=68146 x=159   y=239   width=2     height=2     xoffset=0     yoffset=9     xadvance=13    page=0  chnl=15
char id=68147 x=248   y=218   width=2     height=8     xoffset=0     yoffset=10    xadvance=13    page=0  chnl=15
char id=68152 x=60    y=51    width=1     height=1     xoffset=1     yoffset=21    xadvance=13    page=0  chnl=15
char id=68153 x=171   y=233   width=3     height=5     xoffset=-1    yoffset=21    xadvance=13    page=0  chnl=15
char id=68154 x=62    y=74    width=1     height=1     xoffset=1     yoffset=21    xadvance=13    page=0  chnl=15
char id=68159 x=29    y=218   width=1     height=1     xoffset=1     yoffset=21    xadvance=13    page=0  chnl=15
char id=68160 x=36    y=53    width=3     height=1     xoffset=-1    yoffset=31    xadvance=13    page=0  chnl=15
char id=68161 x=40    y=53    width=3     height=1     xoffset=-1    yoffset=31    xadvance=13    page=0  chnl=15
char id=68162 x=252   y=173   width=2     height=16    xoffset=0     yoffset=9     xadvance=13    page=0  chnl=15
char id=68163 x=165   y=239   width=1     height=2     xoffset=1     yoffset=20    xadvance=13    page=0  chnl=15
char id=68164 x=48    y=51    width=3     height=1     xoffset=-1    yoffset=31    xadvance=13    page=0  chnl=15
char id=68165 x=52    y=51    width=3     height=1     xoffset=-1    yoffset=31    xadvance=13    page=0  chnl=15
char id=68166 x=169   y=239   width=1     height=2     xoffset=1     yoffset=17    xadvance=13    page=0  chnl=15
char id=68167 x=107   y=235   width=2     height=6     xoffset=0     yoffset=10    xadvance=13    page=0  chnl=15
char id=68176 x=58    y=249   width=2     height=3     xoffset=0     yoffset=11    xadvance=13    page=0  chnl=15
char id=68177 x=181   y=233   width=2     height=5     xoffset=0     yoffset=10    xadvance=13    page=0  chnl=15
char id=68178 x=64    y=229   width=2     height=9     xoffset=0     yoffset=13    xadvance=13    page=0  chnl=15
char id=68179 x=101   y=196   width=2     height=1     xoffset=0     yoffset=17    xadvance=13    page=0  chnl=15
char id=68180 x=67    y=229   width=2     height=9     xoffset=0     yoffset=13    xadvance=13    page=0  chnl=15
char id=68181 x=250   y=190   width=2     height=12    xoffset=0     yoffset=11    xadvance=13    page=0  chnl=15
char id=68182 x=169   y=176   width=2     height=18    xoffset=0     yoffset=9     xadvance=13    page=0  chnl=15
char id=68183 x=175   y=176   width=2     height=18    xoffset=0     yoffset=9     xadvance=13    page=0  chnl=15
char id=68184 x=116   y=235   width=2     height=6     xoffset=0     yoffset=14    xadvance=13    page=0  chnl=15
char id=119155 x=220   y=93    width=3     height=1     xoffset=-1    yoffset=31    xadvance=13    page=0  chnl=15
char id=119156 x=224   y=93    width=3     height=1     xoffset=-1    yoffset=31    xadvance=13    page=0  chnl=15
char id=119157 x=64    y=97    width=3     height=1     xoffset=-1    yoffset=31    xadvance=13    page=0  chnl=15
char id=119158 x=48    y=99    width=3     height=1     xoffset=-1    yoffset=31    xadvance=13    page=0  chnl=15
char id=119159 x=36    y=121   width=3     height=1     xoffset=-1    yoffset=31    xadvance=13    page=0  chnl=15
char id=119160 x=40    y=121   width=3     height=1     xoffset=-1    yoffset=31    xadvance=13    page=0  chnl=15
char id=119161 x=44    y=121   width=3     height=1     xoffset=-1    yoffset=31    xadvance=13    page=0  chnl=15
char id=119162 x=228   y=113   width=3     height=1     xoffset=-1    yoffset=31    xadvance=13    page=0  chnl=15
char id=917505 x=232   y=113   width=3     height=1     xoffset=-1    yoffset=31    xadvance=13    page=0  chnl=15
char id=917536 x=236   y=113   width=3     height=1     xoffset=-1    yoffset=31    xadvance=13    page=0  chnl=15
char id=917537 x=32    y=53    width=3     height=1     xoffset=-1    yoffset=31    xadvance=13    page=0  chnl=15
char id=917538 x=68    y=117   width=3     height=1     xoffset=-1    yoffset=31    xadvance=13    page=0  chnl=15
char id=917539 x=72    y=117   width=3     height=1     xoffset=-1    yoffset=31    xadvance=13    page=0  chnl=15
char id=917540 x=76    y=117   width=3     height=1     xoffset=-1    yoffset=31    xadvance=13    page=0  chnl=15
char id=917541 x=52    y=119   width=3     height=1     xoffset=-1    yoffset=31    xadvance=13    page=0  chnl=15
char id=917542 x=56    y=119   width=3     height=1     xoffset=-1    yoffset=31    xadvance=13    page=0  chnl=15
char id=917543 x=60    y=119   width=3     height=1     xoffset=-1    yoffset=31    xadvance=13    page=0  chnl=15
char id=917544 x=48    y=181   width=3     height=1     xoffset=-1    yoffset=31    xadvance=13    page=0  chnl=15
char id=917545 x=240   y=173   width=3     height=1     xoffset=-1    yoffset=31    xadvance=13    page=0  chnl=15
char id=917546 x=80    y=177   width=3     height=1     xoffset=-1    yoffset=31    xadvance=13    page=0  chnl=15
char id=917547 x=84    y=177   width=3     height=1     xoffset=-1    yoffset=31    xadvance=13    page=0  chnl=15
char id=917548 x=64    y=179   width=3     height=1     xoffset=-1    yoffset=31    xadvance=13    page=0  chnl=15
char id=917549 x=68    y=179   width=3     height=1     xoffset=-1    yoffset=31    xadvance=13    page=0  chnl=15
char id=917550 x=52    y=201   width=3     height=1     xoffset=-1    yoffset=31    xadvance=13    page=0  chnl=15
char id=917551 x=244   y=190   width=3     height=1     xoffset=-1    yoffset=31    xadvance=13    page=0  chnl=15
char id=917552 x=180   y=193   width=3     height=1     xoffset=-1    yoffset=31    xadvance=13    page=0  chnl=15
char id=917553 x=89    y=196   width=3     height=1     xoffset=-1    yoffset=31    xadvance=13    page=0  chnl=15
char id=917554 x=93    y=196   width=3     height=1     xoffset=-1    yoffset=31    xadvance=13    page=0  chnl=15
char id=917555 x=97    y=196   width=3     height=1     xoffset=-1    yoffset=31    xadvance=13    page=0  chnl=15
char id=917556 x=73    y=198   width=3     height=1     xoffset=-1    yoffset=31    xadvance=13    page=0  chnl=15
char id=917557 x=184   y=207   width=3     height=1     xoffset=-1    yoffset=31    xadvance=13    page=0  chnl=15
char id=917558 x=188   y=207   width=3     height=1     xoffset=-1    yoffset=31    xadvance=13    page=0  chnl=15
char id=917559 x=104   y=210   width=3     height=1     xoffset=-1    yoffset=31    xadvance=13    page=0  chnl=15
char id=917560 x=108   y=210   width=3     height=1     xoffset=-1    yoffset=31    xadvance=13    page=0  chnl=15
char id=917561 x=80    y=227   width=3     height=1     xoffset=-1    yoffset=31    xadvance=13    page=0  chnl=15
char id=917562 x=84    y=227   width=3     height=1     xoffset=-1    yoffset=31    xadvance=13    page=0  chnl=15
char id=917563 x=225   y=218   width=3     height=1     xoffset=-1    yoffset=31    xadvance=13    page=0  chnl=15
char id=917564 x=192   y=221   width=3     height=1     xoffset=-1    yoffset=31    xadvance=13    page=0  chnl=15
char id=917565 x=112   y=224   width=3     height=1     xoffset=-1    yoffset=31    xadvance=13    page=0  chnl=15
char id=917566 x=116   y=224   width=3     height=1     xoffset=-1    yoffset=31    xadvance=13    page=0  chnl=15
char id=917567 x=32    y=244   width=3     height=1     xoffset=-1    yoffset=31    xadvance=13    page=0  chnl=15
char id=917568 x=36    y=244   width=3     height=1     xoffset=-1    yoffset=31    xadvance=13    page=0  chnl=15
char id=917569 x=175   y=239   width=3     height=1     xoffset=-1    yoffset=31    xadvance=13    page=0  chnl=15
char id=917570 x=179   y=239   width=3     height=1     xoffset=-1    yoffset=31    xadvance=13    page=0  chnl=15
char id=917571 x=183   y=239   width=3     height=1     xoffset=-1    yoffset=31    xadvance=13    page=0  chnl=15
char id=917572 x=187   y=238   width=3     height=1     xoffset=-1    yoffset=31    xadvance=13    page=0  chnl=15
char id=917573 x=191   y=237   width=3     height=1     xoffset=-1    yoffset=31    xadvance=13    page=0  chnl=15
char id=917574 x=195   y=237   width=3     height=1     xoffset=-1    yoffset=31    xadvance=13    page=0  chnl=15
char id=917575 x=199   y=235   width=3     height=1     xoffset=-1    yoffset=31    xadvance=13    page=0  chnl=15
char id=917576 x=203   y=234   width=3     height=1     xoffset=-1    yoffset=31    xadvance=13    page=0  chnl=15
char id=917577 x=207   y=234   width=3     height=1     xoffset=-1    yoffset=31    xadvance=13    page=0  chnl=15
char id=917578 x=211   y=234   width=3     height=1     xoffset=-1    yoffset=31    xadvance=13    page=0  chnl=15
char id=917579 x=215   y=234   width=3     height=1     xoffset=-1    yoffset=31    xadvance=13    page=0  chnl=15
char id=917580 x=219   y=233   width=3     height=1     xoffset=-1    yoffset=31    xadvance=13    page=0  chnl=15
char id=917581 x=223   y=233   width=3     height=1     xoffset=-1    yoffset=31    xadvance=13    page=0  chnl=15
char id=917582 x=227   y=233   width=3     height=1     xoffset=-1    yoffset=31    xadvance=13    page=0  chnl=15
char id=917583 x=231   y=233   width=3     height=1     xoffset=-1    yoffset=31    xadvance=13    page=0  chnl=15
char id=917584 x=235   y=231   width=3     height=1     xoffset=-1    yoffset=31    xadvance=13    page=0  chnl=15
char id=917585 x=239   y=231   width=3     height=1     xoffset=-1    yoffset=31    xadvance=13    page=0  chnl=15
char id=917586 x=243   y=231   width=3     height=1     xoffset=-1    yoffset=31    xadvance=13    page=0  chnl=15
char id=917587 x=247   y=231   width=3     height=1     xoffset=-1    yoffset=31    xadvance=13    page=0  chnl=15
char id=917588 x=251   y=231   width=3     height=1     xoffset=-1    yoffset=31    xadvance=13    page=0  chnl=15
char id=917589 x=91    y=243   width=3     height=1     xoffset=-1    yoffset=31    xadvance=13    page=0  chnl=15
char id=917590 x=95    y=243   width=3     height=1     xoffset=-1    yoffset=31    xadvance=13    page=0  chnl=15
char id=917591 x=53    y=253   width=3     height=1     xoffset=-1    yoffset=31    xadvance=13    page=0  chnl=15
char id=917592 x=57    y=253   width=3     height=1     xoffset=-1    yoffset=31    xadvance=13    page=0  chnl=15
char id=917593 x=61    y=253   width=3     height=1     xoffset=-1    yoffset=31    xadvance=13    page=0  chnl=15
char id=917594 x=65    y=250   width=3     height=1     xoffset=-1    yoffset=31    xadvance=13    page=0  chnl=15
char id=917595 x=69    y=250   width=3     height=1     xoffset=-1    yoffset=31    xadvance=13    page=0  chnl=15
char id=917596 x=73    y=249   width=3     height=1     xoffset=-1    yoffset=31    xadvance=13    page=0  chnl=15
char id=917597 x=77    y=249   width=3     height=1     xoffset=-1    yoffset=31    xadvance=13    page=0  chnl=15
char id=917598 x=81    y=249   width=3     height=1     xoffset=-1    yoffset=31    xadvance=13    page=0  chnl=15
char id=917599 x=85    y=249   width=3     height=1     xoffset=-1    yoffset=31    xadvance=13    page=0  chnl=15
char id=917600 x=89    y=248   width=3     height=1     xoffset=-1    yoffset=31    xadvance=13    page=0  chnl=15
char id=917601 x=93    y=248   width=3     height=1     xoffset=-1    yoffset=31    xadvance=13    page=0  chnl=15
char id=917602 x=97    y=248   width=3     height=1     xoffset=-1    yoffset=31    xadvance=13    page=0  chnl=15
char id=917603 x=101   y=246   width=3     height=1     xoffset=-1    yoffset=31    xadvance=13    page=0  chnl=15
char id=917604 x=105   y=246   width=3     height=1     xoffset=-1    yoffset=31    xadvance=13    page=0  chnl=15
char id=917605 x=109   y=246   width=3     height=1     xoffset=-1    yoffset=31    xadvance=13    page=0  chnl=15
char id=917606 x=113   y=245   width=3     height=1     xoffset=-1    yoffset=31    xadvance=13    page=0  chnl=15
char id=917607 x=117   y=245   width=3     height=1     xoffset=-1    yoffset=31    xadvance=13    page=0  chnl=15
char id=917608 x=121   y=245   width=3     height=1     xoffset=-1    yoffset=31    xadvance=13    page=0  chnl=15
char id=917609 x=125   y=243   width=3     height=1     xoffset=-1    yoffset=31    xadvance=13    page=0  chnl=15
char id=917610 x=129   y=243   width=3     height=1     xoffset=-1    yoffset=31    xadvance=13    page=0  chnl=15
char id=917611 x=133   y=242   width=3     height=1     xoffset=-1    yoffset=31    xadvance=13    page=0  chnl=15
char id=917612 x=137   y=242   width=3     height=1     xoffset=-1    yoffset=31    xadvance=13    page=0  chnl=15
char id=917613 x=141   y=242   width=3     height=1     xoffset=-1    yoffset=31    xadvance=13    page=0  chnl=15
char id=917614 x=145   y=242   width=3     height=1     xoffset=-1    yoffset=31    xadvance=13    page=0  chnl=15
char id=917615 x=149   y=242   width=3     height=1     xoffset=-1    yoffset=31    xadvance=13    page=0  chnl=15
char id=917616 x=153   y=242   width=3     height=1     xoffset=-1    yoffset=31    xadvance=13    page=0  chnl=15
char id=917617 x=157   y=242   width=3     height=1   